1178638623085940738
1200566054713544705
1200567163578470402
1201645058266669057
1201645882871033864
1201646988711870464
1201650387851329536
1201651050656288768
1201651419952111617
1204039364273229824
1204034891010183169
1203373628722692097
1203372838863986688
1203172701327810560
1202632991354359809
1202632795517902848
1202621345584099328
1202305599389732867
1202006218472116231
1201999768433631233
1201917117530021889
1201915175974133761
1201901136728526850
1201868539495354376
1201670753889992704
1201669983920513025
1201669863284125697
1201669820246319105
1201669779704209410
1204039364273229824
1204034891010183169
1203373628722692097
1203372838863986688
1203172701327810560
1202632991354359809
1202632795517902848
1202621345584099328
1202305599389732867
1202006218472116231
1201999768433631233
1201917117530021889
1201915175974133761
1201901136728526850
1201868539495354376
1201670753889992704
1201669983920513025
1201669863284125697
1201669820246319105
1204039364273229824
1204034891010183169
1203373628722692097
1203372838863986688
1203172701327810560
1202632991354359809
1202632795517902848
1202621345584099328
1202305599389732867
1202006218472116231
1201999768433631233
1201917117530021889
1201915175974133761
1201901136728526850
1201868539495354376
1201670753889992704
1201669983920513025
1201669863284125697
1204039364273229824
1204137100209278976
1204137574870245378
1204140332419616769
1204186461769261057
1204187351305506816
1204188859984162817
1208801504024506368
1208525584688697346
1208468129833197568
1208467913323274240
1208277630929141761
1208262851145670656
1207829656185049089
1207825997023916037
1207809571105976322
1207295047693156353
1207130062975307776
1207031965603336192
1207019188079992832
1207018041424388096
1206875322643185665
1206843358242459649
1206836861328613376
1206797622331133952
1206754771757088769
1206730488506793987
1208801504024506368
1208804392419368960
1463876212766523402
1463877605069836291
1463878604035694595
1463879903422689285
1463940639645655052
1463940902641147908
1463941413763268628
1463942081911656456
1463942560464973824
1463943146174357511
1463944243332931586
1464282002174226432
1464282807669252100
1464293535943905280
1464299288306110471
1464302702029160452
1464304321634385924
1464306407675727881
1464306912359587840
1464307390346579985
1464307682714730509
1464308310136532994
1464309524593102854
1464311893745623054
1464312852102234120
1464314835966083081
1464315268096790534
1464315647060549636
1464317792782585864
1464318104113233920
1464318670474297356
1464318887563083779
1464320331456331781
1464320634402623490
1464321144526417932
1464322373105209356
1464323822505627650
1464328507438383109
1464329519255494670
1464485934733352962
1464486670565322754
1464487090733920256
1464686884987326465
1464687001026842631
1464976767467376643
1464977415223095297
1464989422521364490
1464989782799486979
1464989895726878732
1464993240508256256
1464993525397872656
1464994066156904449
1464994800776663046
1464995225911373826
1464997466806362115
1464998186309885963
1465000151072882705
1465004044280283138
1465005595510157319
1465007984313044996
1465008258654085127
1465009256101564419
1465009863231160322
1465010499729477640
1465011563312603136
1465012014288453647
1465012305733767172
1465012635943026694
1465013315797762050
1465013453756719113
1465013657671282688
1465014795694977028
1465015011122757633
1465015953603895298
1465017098615328776
1465017585771155462
1465017995479113736
1465019324373082112
1465019678582087693
1465020114282106886
1465020978673721351
1465021433076236296
1465022049706024965
1465022097726623748
1465022355105890304
1465022679048728581
1465022891955826693
1465023149125296129
1465023406152294400
1465023663217037322
1465023803994554369
1465025505640525829
1465027225711960077
1465104682121052167
1465105166047358980
1465107192747597824
1465107548554543108
1465353776018112514
1465359093267316740
1465363292512268289
1465367635969908741
1465403560989011969
1466257387124310018
